\relax 
\ifx\hyper@anchor\@undefined
\global \let \oldcontentsline\contentsline
\gdef \contentsline#1#2#3#4{\oldcontentsline{#1}{#2}{#3}}
\global \let \oldnewlabel\newlabel
\gdef \newlabel#1#2{\newlabelxx{#1}#2}
\gdef \newlabelxx#1#2#3#4#5#6{\oldnewlabel{#1}{{#2}{#3}}}
\AtEndDocument{\let \contentsline\oldcontentsline
\let \newlabel\oldnewlabel}
\else
\global \let \hyper@last\relax 
\fi

\citation{Jobs95}
\citation{Jobs95}
\citation{Pellacini:2005:LAH}
\citation{notes2002}
\citation{Park:2006:DSI}
\@LN@col{1}
\@writefile{toc}{\contentsline {section}{\numberline {1}Introduction}{1}{section.1}}
\@LN@col{2}
\@writefile{toc}{\contentsline {section}{\numberline {2}Exposition}{1}{section.2}}
\@writefile{toc}{\contentsline {section}{\numberline {3}Exposition}{1}{section.3}}
\bibstyle{acmsiggraph}
\bibdata{template}
\@LN@col{1}
\@writefile{lof}{\contentsline {figure}{\numberline {1}{\ignorespaces Sample illustration.\relax }}{2}{figure.caption.2}}
\@writefile{toc}{\contentsline {section}{\numberline {4}Exposition}{2}{section.4}}
\@LN@col{2}
\@writefile{toc}{\contentsline {section}{\numberline {5}Conclusion}{2}{section.5}}
