\relax 
\ifx\hyper@anchor\@undefined
\global \let \oldcontentsline\contentsline
\gdef \contentsline#1#2#3#4{\oldcontentsline{#1}{#2}{#3}}
\global \let \oldnewlabel\newlabel
\gdef \newlabel#1#2{\newlabelxx{#1}#2}
\gdef \newlabelxx#1#2#3#4#5#6{\oldnewlabel{#1}{{#2}{#3}}}
\AtEndDocument{\let \contentsline\oldcontentsline
\let \newlabel\oldnewlabel}
\else
\global \let \hyper@last\relax 
\fi

\catcode`"\active
\citation{PyPDF}
\citation{iText}
\citation{jython}
\@LN@col{1}
\select@language{german}
\@writefile{toc}{\select@language{german}}
\@writefile{lof}{\select@language{german}}
\@writefile{lot}{\select@language{german}}
\@writefile{toc}{\contentsline {section}{\numberline {1}Abstract}{1}{section.1}}
\@writefile{toc}{\contentsline {section}{\numberline {2}Technologie Wahl}{1}{section.2}}
\@writefile{toc}{\contentsline {section}{\numberline {3}Programm Aufbau und Ablauf}{1}{section.3}}
\@LN@col{2}
\@writefile{toc}{\contentsline {section}{\numberline {4}Resourcen}{1}{section.4}}
\@writefile{toc}{\contentsline {subsection}{\numberline {4.1}Laufzeit-Umgebung}{1}{subsection.4.1}}
\@writefile{toc}{\contentsline {section}{\numberline {5}Programm start}{1}{section.5}}
\bibstyle{acmsiggraph}
\bibdata{./template.bib}
\bibcite{PyPDF}{\citename {Fenniak }2008}
\bibcite{iText}{\citename {iTe }}
\bibcite{jython}{\citename {jyt }2011}
\bibcite{Oelke}{\citename {Oelke et~al\unhbox \voidb@x \hbox {.} }2010}
\@LN@col{1}
\@writefile{lof}{\contentsline {figure}{\numberline {1}{\ignorespaces Initialisiertes Fenster nach dem Startup.\relax }}{2}{figure.caption.1}}
\@writefile{lof}{\contentsline {figure}{\numberline {2}{\ignorespaces Datei-\IeC {\"O}ffnen-Dialog\relax }}{2}{figure.caption.2}}
\@writefile{toc}{\contentsline {section}{\numberline {6}Ausblick}{2}{section.6}}
\@writefile{toc}{\contentsline {subsection}{\numberline {6.1}Textparsing}{2}{subsection.6.1}}
\@writefile{toc}{\contentsline {subsection}{\numberline {6.2}Sortierung}{2}{subsection.6.2}}
\@writefile{toc}{\contentsline {subsection}{\numberline {6.3}Darstellungsmodus}{2}{subsection.6.3}}
\@LN@col{2}
\@writefile{lof}{\contentsline {figure}{\numberline {3}{\ignorespaces PDF-Darstellung, Seitenansicht.\relax }}{2}{figure.caption.3}}
\@writefile{lof}{\contentsline {figure}{\numberline {4}{\ignorespaces Tabellarische Ansicht - Rating der S\IeC {\"a}tze f\IeC {\"u}r jedes Feature\relax }}{2}{figure.caption.4}}
\@writefile{toc}{\contentsline {subsection}{\numberline {6.4}GUI Erweiterungen}{2}{subsection.6.4}}
