\relax 
\ifx\hyper@anchor\@undefined
\global \let \oldcontentsline\contentsline
\gdef \contentsline#1#2#3#4{\oldcontentsline{#1}{#2}{#3}}
\global \let \oldnewlabel\newlabel
\gdef \newlabel#1#2{\newlabelxx{#1}#2}
\gdef \newlabelxx#1#2#3#4#5#6{\oldnewlabel{#1}{{#2}{#3}}}
\AtEndDocument{\let \contentsline\oldcontentsline
\let \newlabel\oldnewlabel}
\else
\global \let \hyper@last\relax 
\fi

\providecommand*\HyPL@Entry[1]{}
\catcode`"\active
\citation{Oelke}
\citation{Oelke}
\citation{Oelke}
\citation{Oelke}
\citation{Oelke}
\citation{Oelke}
\citation{Oelke}
\citation{Oelke}
\HyPL@Entry{0<</S/D>>}
\@LN@col{1}
\select@language{german}
\@writefile{toc}{\select@language{german}}
\@writefile{lof}{\select@language{german}}
\@writefile{lot}{\select@language{german}}
\@writefile{toc}{\contentsline {section}{\numberline {1}Abstract}{1}{section.1}}
\@writefile{toc}{\contentsline {section}{\numberline {2}Visual Readability Analysis}{1}{section.2}}
\@writefile{toc}{\contentsline {subsection}{\numberline {2.1}Analyse nach Wortklassen}{1}{subsection.2.1}}
\@writefile{toc}{\contentsline {subsection}{\numberline {2.2}Analyse nach Worth\IeC {\"a}ufigkeit}{1}{subsection.2.2}}
\@writefile{toc}{\contentsline {subsection}{\numberline {2.3}Analyse nach Satzaufbau}{1}{subsection.2.3}}
\@writefile{toc}{\contentsline {subsection}{\numberline {2.4}Andere}{1}{subsection.2.4}}
\@LN@col{2}
\@writefile{toc}{\contentsline {section}{\numberline {3}Trainingsset}{1}{section.3}}
\@writefile{toc}{\contentsline {section}{\numberline {4}Darstellung}{1}{section.4}}
\@writefile{toc}{\contentsline {subsection}{\numberline {4.1}Corpus View}{1}{subsection.4.1}}
\@writefile{toc}{\contentsline {subsection}{\numberline {4.2}Block View}{1}{subsection.4.2}}
\citation{Oelke}
\citation{Oelke}
\citation{Oelke}
\citation{Oelke}
\bibstyle{acmsiggraph}
\bibdata{./template.bib}
\bibcite{Oelke}{\citename {Oelke et~al\unhbox \voidb@x \hbox {.} }2010}
\@LN@col{1}
\@writefile{toc}{\contentsline {subsection}{\numberline {4.3}Detail View}{2}{subsection.4.3}}
\@writefile{toc}{\contentsline {section}{\numberline {5}Implementierungsvorschlag}{2}{section.5}}
\@writefile{toc}{\contentsline {subsection}{\numberline {5.1}Trainingsset}{2}{subsection.5.1}}
\@writefile{toc}{\contentsline {subsection}{\numberline {5.2}Framework Merkmalsanalyse}{2}{subsection.5.2}}
\@writefile{toc}{\contentsline {subsection}{\numberline {5.3}Merkmal Darstellung}{2}{subsection.5.3}}
\@LN@col{2}
\@writefile{lof}{\contentsline {figure}{\numberline {1}{\ignorespaces Mock DetailView. ~\def ##1{##1}\cite  {Oelke}\relax }}{2}{figure.caption.1}}
